{
	"_type": "export",
	"__export_format": 3,
	"__export_date": "2018-04-04T03:03:38.155Z",
	"__export_source": "insomnia.desktop.app:v5.15.0",
	"resources": [
		{
			"_id": "wrk_95dedb6089ad4e05801bdaa6593ffe1d",
			"created": 1522727590570,
			"description": "",
			"modified": 1522727590570,
			"name": "Backend",
			"parentId": null,
			"_type": "workspace"
		},
		{
			"_id": "env_b830e4d1f2d849dc9123d8828dde0c72",
			"color": null,
			"created": 1522727590586,
			"data": {},
			"isPrivate": false,
			"modified": 1522727590586,
			"name": "New Environment",
			"parentId": "wrk_95dedb6089ad4e05801bdaa6593ffe1d",
			"_type": "environment"
		},
		{
			"_id": "jar_47947ebac5284c27a5860f89bb05e45d",
			"cookies": [],
			"created": 1522727590591,
			"modified": 1522727590591,
			"name": "Default Jar",
			"parentId": "wrk_95dedb6089ad4e05801bdaa6593ffe1d",
			"_type": "cookie_jar"
		},
		{
			"_id": "req_dfe42b2399fa4539a6d0c0765f3f6795",
			"authentication": {},
			"body": {
				"mimeType": "application/json",
				"text": "{\n\t\"email\": \"villa061004@gmail.com\",\n\t\"pass\": \"rodrigo\"\n}"
			},
			"created": 1522727602257,
			"description": "",
			"headers": [
				{
					"id": "pair_20629fc4d27b48a5a9d317f56fbecab1",
					"name": "Content-Type",
					"value": "application/json"
				}
			],
			"isPrivate": false,
			"metaSortKey": -1522727602158,
			"method": "POST",
			"modified": 1522792195938,
			"name": "CreateUser",
			"parameters": [],
			"parentId": "wrk_95dedb6089ad4e05801bdaa6593ffe1d",
			"settingDisableRenderRequestBody": false,
			"settingEncodeUrl": true,
			"settingRebuildPath": true,
			"settingSendCookies": true,
			"settingStoreCookies": true,
			"url": "http://localhost:8000/users/create",
			"_type": "request"
		},
		{
			"_id": "req_68d2609f9c9f483da180e2a49cfc733c",
			"authentication": {},
			"body": {},
			"created": 1522765768498,
			"description": "",
			"headers": [],
			"isPrivate": false,
			"metaSortKey": -1522727602208,
			"method": "GET",
			"modified": 1522805619811,
			"name": "LoginUser",
			"parameters": [],
			"parentId": "wrk_95dedb6089ad4e05801bdaa6593ffe1d",
			"settingDisableRenderRequestBody": false,
			"settingEncodeUrl": true,
			"settingRebuildPath": true,
			"settingSendCookies": true,
			"settingStoreCookies": true,
			"url": "http://localhost:8000/users/login/villa061004@gmail.com/rodrigo",
			"_type": "request"
		},
		{
			"_id": "req_cc6fd4d2a1444419a62b1dccb0b7b975",
			"authentication": {},
			"body": {},
			"created": 1522765789369,
			"description": "",
			"headers": [],
			"isPrivate": false,
			"metaSortKey": -1522765789369,
			"method": "GET",
			"modified": 1522771689022,
			"name": "ExistsUser",
			"parameters": [],
			"parentId": "wrk_95dedb6089ad4e05801bdaa6593ffe1d",
			"settingDisableRenderRequestBody": false,
			"settingEncodeUrl": true,
			"settingRebuildPath": true,
			"settingSendCookies": true,
			"settingStoreCookies": true,
			"url": "http://localhost:8000/users/exists/villa061004@gmail.com",
			"_type": "request"
		},
		{
			"_id": "req_6c5ecc09a9ce4dee8315214794a9ae0e",
			"authentication": {},
			"body": {},
			"created": 1522792077743,
			"description": "",
			"headers": [],
			"isPrivate": false,
			"metaSortKey": -1522792077743,
			"method": "GET",
			"modified": 1522792088281,
			"name": "CreateToken",
			"parameters": [],
			"parentId": "wrk_95dedb6089ad4e05801bdaa6593ffe1d",
			"settingDisableRenderRequestBody": false,
			"settingEncodeUrl": true,
			"settingRebuildPath": true,
			"settingSendCookies": true,
			"settingStoreCookies": true,
			"url": "http://localhost:8000/users/token/villa061004@gmail.com",
			"_type": "request"
		},
		{
			"_id": "req_da9740a2d9244fcebae9d963d1e27604",
			"authentication": {},
			"body": {
				"mimeType": "application/json",
				"text": "{\n\t\"pass\": \"rodrigo\",\n\t\"token\": \"c8f3aa611328851bb673f214f44eaf0fe1227043\"\n}"
			},
			"created": 1522800538342,
			"description": "",
			"headers": [
				{
					"id": "pair_9451af8b37f448b0ac5b31919153e929",
					"name": "Content-Type",
					"value": "application/json"
				}
			],
			"isPrivate": false,
			"metaSortKey": -1522800538342,
			"method": "POST",
			"modified": 1522800632444,
			"name": "ResetPassword",
			"parameters": [],
			"parentId": "wrk_95dedb6089ad4e05801bdaa6593ffe1d",
			"settingDisableRenderRequestBody": false,
			"settingEncodeUrl": true,
			"settingRebuildPath": true,
			"settingSendCookies": true,
			"settingStoreCookies": true,
			"url": "http://localhost:8000/users/reset",
			"_type": "request"
		},
		{
			"_id": "req_2320e956730f4655b615e31a0f667616",
			"authentication": {},
			"body": {},
			"created": 1522805276774,
			"description": "",
			"headers": [],
			"isPrivate": false,
			"metaSortKey": -1522805276775,
			"method": "GET",
			"modified": 1522805294614,
			"name": "GetUserInfo",
			"parameters": [],
			"parentId": "wrk_95dedb6089ad4e05801bdaa6593ffe1d",
			"settingDisableRenderRequestBody": false,
			"settingEncodeUrl": true,
			"settingRebuildPath": true,
			"settingSendCookies": true,
			"settingStoreCookies": true,
			"url": "http://localhost:8000/users/info/villa061004@gmail.com",
			"_type": "request"
		},
		{
			"_id": "req_6109b213215e436cb848c64445f06874",
			"authentication": {},
			"body": {
				"mimeType": "application/json",
				"text": "{\n\t\"id\": 2,\n\t\"email\": \"villa0610004@gmail.com\",\n\t\"firstName\": \"Rodrigo\",\n\t\"lastName\": \"Villablanca\",\n\t\"cellphone\": \"74733360\"\n}"
			},
			"created": 1522809281757,
			"description": "",
			"headers": [
				{
					"id": "pair_d63bfd8ac2cf4b96a4b67af89430cfae",
					"name": "Content-Type",
					"value": "application/json"
				}
			],
			"isPrivate": false,
			"metaSortKey": -1522807279266.5,
			"method": "POST",
			"modified": 1522809417162,
			"name": "UpdateUserInfo",
			"parameters": [],
			"parentId": "wrk_95dedb6089ad4e05801bdaa6593ffe1d",
			"settingDisableRenderRequestBody": false,
			"settingEncodeUrl": true,
			"settingRebuildPath": true,
			"settingSendCookies": true,
			"settingStoreCookies": true,
			"url": "http://localhost:8000/users/update",
			"_type": "request"
		}
	]
}